# Blender v2.72 (sub 0) OBJ File: 'chip.blend'
# www.blender.org
o Cylinder
v -0.000004 4.990870 -0.457554
v -0.000004 4.990870 0.457555
v 0.521688 4.963530 -0.457554
v 0.521688 4.963530 0.457555
v 1.037660 4.881807 -0.457554
v 1.037660 4.881807 0.457555
v 1.542264 4.746599 -0.457554
v 1.542264 4.746599 0.457555
v 2.029970 4.559386 -0.457554
v 2.029970 4.559386 0.457555
v 2.495435 4.322220 -0.457554
v 2.495435 4.322220 0.457555
v 2.933560 4.037699 -0.457554
v 2.933560 4.037699 0.457555
v 3.339544 3.708939 -0.457554
v 3.339544 3.708939 0.457555
v 3.708939 3.339544 -0.457554
v 3.708939 3.339544 0.457555
v 4.037699 2.933560 -0.457554
v 4.037699 2.933560 0.457554
v 4.322220 2.495435 -0.457554
v 4.322220 2.495435 0.457554
v 4.559387 2.029970 -0.457554
v 4.559387 2.029970 0.457554
v 4.746600 1.542264 -0.457554
v 4.746600 1.542264 0.457554
v 4.881807 1.037660 -0.457554
v 4.881807 1.037660 0.457554
v 4.963530 0.521688 -0.457554
v 4.963530 0.521688 0.457554
v 4.990870 -0.000000 -0.457554
v 4.990870 -0.000000 0.457554
v 4.963530 -0.521688 -0.457554
v 4.963530 -0.521688 0.457554
v 4.881807 -1.037660 -0.457554
v 4.881807 -1.037660 0.457554
v 4.746599 -1.542264 -0.457554
v 4.746599 -1.542264 0.457554
v 4.559386 -2.029970 -0.457554
v 4.559386 -2.029970 0.457554
v 4.322220 -2.495435 -0.457554
v 4.322220 -2.495435 0.457554
v 4.037699 -2.933559 -0.457554
v 4.037699 -2.933559 0.457554
v 3.708940 -3.339543 -0.457555
v 3.708940 -3.339543 0.457554
v 3.339545 -3.708938 -0.457555
v 3.339545 -3.708938 0.457554
v 2.933561 -4.037698 -0.457555
v 2.933561 -4.037698 0.457554
v 2.495437 -4.322219 -0.457555
v 2.495437 -4.322219 0.457554
v 2.029973 -4.559385 -0.457555
v 2.029973 -4.559385 0.457554
v 1.542267 -4.746598 -0.457555
v 1.542267 -4.746598 0.457554
v 1.037664 -4.881806 -0.457555
v 1.037664 -4.881806 0.457554
v 0.521693 -4.963529 -0.457555
v 0.521693 -4.963529 0.457554
v 0.000006 -4.990870 -0.457555
v 0.000006 -4.990870 0.457554
v -0.521682 -4.963530 -0.457555
v -0.521682 -4.963530 0.457554
v -1.037654 -4.881809 -0.457555
v -1.037654 -4.881809 0.457554
v -1.542257 -4.746602 -0.457555
v -1.542257 -4.746602 0.457554
v -2.029963 -4.559390 -0.457555
v -2.029963 -4.559390 0.457554
v -2.495428 -4.322224 -0.457555
v -2.495428 -4.322224 0.457554
v -2.933553 -4.037704 -0.457555
v -2.933553 -4.037704 0.457554
v -3.339537 -3.708946 -0.457555
v -3.339537 -3.708946 0.457554
v -3.708932 -3.339551 -0.457555
v -3.708932 -3.339551 0.457554
v -4.037692 -2.933568 -0.457554
v -4.037692 -2.933568 0.457554
v -4.322214 -2.495445 -0.457554
v -4.322214 -2.495445 0.457554
v -4.559381 -2.029981 -0.457554
v -4.559381 -2.029981 0.457554
v -4.746595 -1.542276 -0.457554
v -4.746595 -1.542276 0.457554
v -4.881804 -1.037673 -0.457554
v -4.881804 -1.037673 0.457554
v -4.963528 -0.521702 -0.457554
v -4.963528 -0.521702 0.457554
v -4.990870 -0.000014 -0.457554
v -4.990870 -0.000014 0.457554
v -4.963531 0.521673 -0.457554
v -4.963531 0.521673 0.457554
v -4.881811 1.037645 -0.457554
v -4.881811 1.037645 0.457554
v -4.746604 1.542248 -0.457554
v -4.746604 1.542248 0.457554
v -4.559393 2.029954 -0.457554
v -4.559393 2.029954 0.457554
v -4.322228 2.495420 -0.457554
v -4.322228 2.495420 0.457554
v -4.037709 2.933545 -0.457554
v -4.037709 2.933545 0.457554
v -3.708951 3.339530 -0.457554
v -3.708951 3.339530 0.457555
v -3.339558 3.708927 -0.457554
v -3.339558 3.708927 0.457555
v -2.933575 4.037687 -0.457554
v -2.933575 4.037687 0.457555
v -2.495452 4.322210 -0.457554
v -2.495452 4.322210 0.457555
v -2.029988 4.559379 -0.457554
v -2.029988 4.559379 0.457555
v -1.542284 4.746593 -0.457554
v -1.542284 4.746593 0.457555
v -1.037682 4.881803 -0.457554
v -1.037682 4.881803 0.457555
v -0.521706 4.963527 -0.457554
v -0.521706 4.963527 0.457555
v 0.261058 4.981310 -0.468507
v 0.261058 4.981310 0.468508
v -0.000004 5.039510 0.000001
v 0.526772 5.011904 0.000001
v 0.780318 4.926733 -0.468506
v 0.780318 4.926733 0.468508
v 1.047773 4.929385 0.000001
v 1.291027 4.818179 -0.468506
v 1.291027 4.818179 0.468507
v 1.557294 4.792860 0.000001
v 1.787592 4.656835 -0.468506
v 1.787592 4.656835 0.468507
v 2.049754 4.603822 0.000001
v 2.264571 4.444470 -0.468506
v 2.264571 4.444470 0.468507
v 2.519755 4.364344 0.000001
v 2.716739 4.183411 -0.468506
v 2.716739 4.183411 0.468507
v 2.962150 4.077050 0.000000
v 3.139142 3.876518 -0.468506
v 3.139142 3.876518 0.468507
v 3.372091 3.745086 0.000000
v 3.527152 3.527152 -0.468506
v 3.527152 3.527152 0.468507
v 3.745087 3.372091 0.000000
v 3.876518 3.139142 -0.468507
v 3.876518 3.139142 0.468507
v 4.077050 2.962150 0.000000
v 4.183411 2.716739 -0.468507
v 4.183411 2.716739 0.468507
v 4.364345 2.519755 0.000000
v 4.444471 2.264571 -0.468507
v 4.444471 2.264571 0.468507
v 4.603822 2.049754 0.000000
v 4.656836 1.787592 -0.468507
v 4.656836 1.787592 0.468507
v 4.792860 1.557294 0.000000
v 4.818179 1.291027 -0.468507
v 4.818179 1.291027 0.468507
v 4.929385 1.047773 0.000000
v 4.926733 0.780318 -0.468507
v 4.926733 0.780318 0.468507
v 5.011904 0.526772 0.000000
v 4.981310 0.261059 -0.468507
v 4.981310 0.261059 0.468507
v 5.039511 -0.000000 0.000000
v 4.981310 -0.261060 -0.468507
v 4.981310 -0.261060 0.468507
v 5.011904 -0.526773 -0.000000
v 4.926733 -0.780318 -0.468507
v 4.926733 -0.780318 0.468507
v 4.929385 -1.047773 -0.000000
v 4.818179 -1.291027 -0.468507
v 4.818179 -1.291027 0.468507
v 4.792860 -1.557295 -0.000000
v 4.656835 -1.787592 -0.468507
v 4.656835 -1.787592 0.468507
v 4.603822 -2.049754 -0.000000
v 4.444470 -2.264571 -0.468507
v 4.444470 -2.264571 0.468507
v 4.364344 -2.519756 -0.000000
v 4.183411 -2.716739 -0.468507
v 4.183411 -2.716739 0.468507
v 4.077050 -2.962150 -0.000000
v 3.876518 -3.139142 -0.468507
v 3.876518 -3.139142 0.468507
v 3.745087 -3.372091 -0.000000
v 3.527153 -3.527151 -0.468507
v 3.527153 -3.527151 0.468506
v 3.372092 -3.745085 -0.000000
v 3.139143 -3.876517 -0.468507
v 3.139143 -3.876517 0.468506
v 2.962152 -4.077049 -0.000000
v 2.716741 -4.183410 -0.468507
v 2.716741 -4.183410 0.468506
v 2.519758 -4.364343 -0.000001
v 2.264573 -4.444469 -0.468507
v 2.264573 -4.444469 0.468506
v 2.049757 -4.603821 -0.000001
v 1.787595 -4.656834 -0.468507
v 1.787595 -4.656834 0.468506
v 1.557298 -4.792859 -0.000001
v 1.291031 -4.818178 -0.468507
v 1.291031 -4.818178 0.468506
v 1.047777 -4.929384 -0.000001
v 0.780322 -4.926733 -0.468507
v 0.780322 -4.926733 0.468506
v 0.526777 -5.011903 -0.000001
v 0.261065 -4.981310 -0.468507
v 0.261065 -4.981310 0.468506
v 0.000006 -5.039511 -0.000001
v -0.261054 -4.981310 -0.468507
v -0.261054 -4.981310 0.468506
v -0.526766 -5.011905 -0.000001
v -0.780312 -4.926734 -0.468507
v -0.780312 -4.926734 0.468506
v -1.047767 -4.929387 -0.000001
v -1.291020 -4.818181 -0.468507
v -1.291020 -4.818181 0.468506
v -1.557288 -4.792862 -0.000001
v -1.787585 -4.656838 -0.468507
v -1.787585 -4.656838 0.468506
v -2.049747 -4.603826 -0.000001
v -2.264564 -4.444475 -0.468507
v -2.264564 -4.444475 0.468506
v -2.519748 -4.364348 -0.000001
v -2.716732 -4.183416 -0.468507
v -2.716732 -4.183416 0.468506
v -2.962143 -4.077055 -0.000000
v -3.139135 -3.876523 -0.468507
v -3.139135 -3.876523 0.468506
v -3.372084 -3.745093 -0.000000
v -3.527145 -3.527159 -0.468507
v -3.527145 -3.527159 0.468507
v -3.745080 -3.372099 -0.000000
v -3.876511 -3.139150 -0.468507
v -3.876511 -3.139150 0.468506
v -4.077044 -2.962159 -0.000000
v -4.183405 -2.716748 -0.468507
v -4.183405 -2.716748 0.468506
v -4.364338 -2.519765 -0.000000
v -4.444465 -2.264581 -0.468507
v -4.444465 -2.264581 0.468507
v -4.603817 -2.049765 -0.000000
v -4.656831 -1.787603 -0.468507
v -4.656831 -1.787603 0.468507
v -4.792856 -1.557307 -0.000000
v -4.818175 -1.291039 -0.468507
v -4.818175 -1.291039 0.468507
v -4.929382 -1.047786 -0.000000
v -4.926731 -0.780331 -0.468507
v -4.926731 -0.780331 0.468507
v -5.011902 -0.526786 -0.000000
v -4.981309 -0.261073 -0.468507
v -4.981309 -0.261073 0.468507
v -5.039511 -0.000014 -0.000000
v -4.981311 0.261045 -0.468507
v -4.981311 0.261045 0.468507
v -5.011905 0.526757 0.000000
v -4.926735 0.780303 -0.468507
v -4.926735 0.780303 0.468507
v -4.929389 1.047758 0.000000
v -4.818183 1.291012 -0.468507
v -4.818183 1.291012 0.468507
v -4.792864 1.557279 0.000000
v -4.656841 1.787576 -0.468507
v -4.656841 1.787576 0.468507
v -4.603829 2.049738 0.000000
v -4.444478 2.264556 -0.468507
v -4.444478 2.264556 0.468507
v -4.364353 2.519741 0.000000
v -4.183421 2.716724 -0.468507
v -4.183421 2.716724 0.468507
v -4.077061 2.962136 0.000000
v -3.876529 3.139128 -0.468507
v -3.876529 3.139128 0.468507
v -3.745099 3.372077 0.000000
v -3.527165 3.527139 -0.468506
v -3.527165 3.527139 0.468507
v -3.372105 3.745074 0.000000
v -3.139157 3.876506 -0.468506
v -3.139157 3.876506 0.468507
v -2.962166 4.077039 0.000000
v -2.716755 4.183401 -0.468506
v -2.716755 4.183401 0.468507
v -2.519773 4.364335 0.000001
v -2.264589 4.444462 -0.468506
v -2.264589 4.444462 0.468507
v -2.049773 4.603814 0.000001
v -1.787611 4.656828 -0.468506
v -1.787611 4.656828 0.468507
v -1.557315 4.792853 0.000001
v -1.291048 4.818173 -0.468506
v -1.291048 4.818173 0.468507
v -1.047795 4.929380 0.000001
v -0.780338 4.926730 -0.468506
v -0.780338 4.926730 0.468508
v -0.526791 5.011901 0.000001
v -0.261070 4.981308 -0.468507
v -0.261070 4.981308 0.468508
v 0.263806 5.033747 0.000001
v 0.788532 4.978596 0.000001
v 1.304617 4.868898 0.000001
v 1.806409 4.705856 0.000001
v 2.288409 4.491256 0.000001
v 2.745337 4.227449 0.000001
v 3.172187 3.917325 0.000000
v 3.564281 3.564281 0.000000
v 3.917325 3.172187 0.000000
v 4.227449 2.745337 0.000000
v 4.491256 2.288409 0.000000
v 4.705857 1.806409 0.000000
v 4.868898 1.304617 0.000000
v 4.978596 0.788532 0.000000
v 5.033746 0.263807 0.000000
v 5.033746 -0.263808 -0.000000
v 4.978596 -0.788532 -0.000000
v 4.868898 -1.304618 -0.000000
v 4.705856 -1.806409 -0.000000
v 4.491256 -2.288409 -0.000000
v 4.227449 -2.745337 -0.000000
v 3.917325 -3.172186 -0.000000
v 3.564282 -3.564280 -0.000000
v 3.172188 -3.917324 -0.000000
v 2.745339 -4.227448 -0.000001
v 2.288412 -4.491255 -0.000001
v 1.806412 -4.705855 -0.000001
v 1.304621 -4.868897 -0.000001
v 0.788537 -4.978595 -0.000001
v 0.263813 -5.033746 -0.000001
v -0.263802 -5.033747 -0.000001
v -0.788526 -4.978597 -0.000001
v -1.304611 -4.868900 -0.000001
v -1.806402 -4.705859 -0.000001
v -2.288402 -4.491260 -0.000001
v -2.745330 -4.227453 -0.000001
v -3.172179 -3.917330 -0.000000
v -3.564274 -3.564288 -0.000000
v -3.917318 -3.172195 -0.000000
v -4.227442 -2.745347 -0.000000
v -4.491250 -2.288420 -0.000000
v -4.705852 -1.806421 -0.000000
v -4.868895 -1.304630 -0.000000
v -4.978593 -0.788545 -0.000000
v -5.033745 -0.263822 -0.000000
v -5.033747 0.263793 0.000000
v -4.978598 0.788517 0.000000
v -4.868902 1.304602 0.000000
v -4.705862 1.806394 0.000000
v -4.491263 2.288394 0.000000
v -4.227458 2.745323 0.000000
v -3.917336 3.172173 0.000000
v -3.564294 3.564268 0.000000
v -3.172202 3.917312 0.000000
v -2.745354 4.227438 0.000001
v -2.288427 4.491247 0.000001
v -1.806429 4.705849 0.000001
v -1.304638 4.868892 0.000001
v -0.263819 5.033745 0.000001
v -0.788552 4.978592 0.000001
vn 0.072100 0.991800 0.105700
vn 0.175400 0.978800 0.105700
vn 0.276700 0.955100 0.105700
vn 0.375100 0.921000 0.105700
vn 0.469300 0.876700 0.105700
vn 0.558300 0.822900 0.105700
vn 0.641300 0.760000 0.105700
vn 0.717200 0.688800 0.105700
vn 0.785300 0.610100 0.105700
vn 0.844800 0.524600 0.105700
vn 0.895000 0.433500 0.105700
vn 0.935400 0.337500 0.105700
vn 0.965500 0.237900 0.105700
vn 0.985100 0.135700 0.105700
vn 0.993900 0.032000 0.105700
vn 0.991800 -0.072100 0.105700
vn 0.978800 -0.175400 0.105700
vn 0.955100 -0.276700 0.105700
vn 0.921000 -0.375000 0.105700
vn 0.876700 -0.469300 0.105700
vn 0.822900 -0.558300 0.105700
vn 0.760000 -0.641300 0.105700
vn 0.688800 -0.717200 0.105700
vn 0.610100 -0.785300 0.105700
vn 0.524600 -0.844800 0.105700
vn 0.433500 -0.895000 0.105700
vn 0.337500 -0.935400 0.105700
vn 0.237900 -0.965500 0.105700
vn 0.135700 -0.985100 0.105700
vn 0.032000 -0.993900 0.105700
vn -0.072100 -0.991800 0.105700
vn -0.175400 -0.978800 0.105700
vn -0.276700 -0.955100 0.105700
vn -0.375000 -0.921000 0.105700
vn -0.469300 -0.876700 0.105700
vn -0.558300 -0.822900 0.105700
vn -0.641300 -0.760000 0.105700
vn -0.717200 -0.688800 0.105700
vn -0.785300 -0.610100 0.105700
vn -0.844700 -0.524600 0.105700
vn -0.895000 -0.433500 0.105700
vn -0.935400 -0.337500 0.105700
vn -0.965500 -0.237900 0.105700
vn -0.985100 -0.135700 0.105700
vn -0.993900 -0.032000 0.105700
vn -0.991800 0.072100 0.105700
vn -0.978800 0.175400 0.105700
vn -0.955100 0.276700 0.105700
vn -0.921000 0.375000 0.105700
vn -0.876700 0.469300 0.105700
vn -0.822900 0.558300 0.105700
vn -0.760000 0.641300 0.105700
vn -0.688800 0.717200 0.105700
vn -0.610100 0.785300 0.105700
vn -0.524600 0.844700 0.105700
vn -0.433500 0.895000 0.105700
vn -0.337500 0.935400 0.105700
vn -0.237900 0.965500 0.105700
vn -0.000000 -0.000000 1.000000
vn -0.032000 0.993900 0.105700
vn -0.135700 0.985100 0.105700
vn 0.000000 0.000000 -1.000000
vn 0.082300 0.990400 -0.111300
vn 0.021700 0.993500 -0.111300
vn 0.032000 0.993900 0.105700
vn 0.185300 0.976300 -0.111300
vn 0.125400 0.985800 -0.111300
vn 0.135700 0.985100 0.105700
vn 0.286400 0.951600 -0.111300
vn 0.227800 0.967300 -0.111300
vn 0.237900 0.965500 0.105700
vn 0.384300 0.916500 -0.111300
vn 0.327700 0.938200 -0.111300
vn 0.337500 0.935400 0.105700
vn 0.478000 0.871300 -0.111300
vn 0.423900 0.898800 -0.111300
vn 0.433500 0.895000 0.105700
vn 0.566400 0.816600 -0.111300
vn 0.515600 0.849600 -0.111300
vn 0.524600 0.844800 0.105700
vn 0.648700 0.752900 -0.111300
vn 0.601600 0.791000 -0.111300
vn 0.610100 0.785300 0.105700
vn 0.723800 0.680900 -0.111300
vn 0.680900 0.723800 -0.111300
vn 0.688800 0.717200 0.105700
vn 0.791000 0.601600 -0.111300
vn 0.752900 0.648700 -0.111300
vn 0.760000 0.641300 0.105700
vn 0.849600 0.515600 -0.111300
vn 0.816600 0.566400 -0.111300
vn 0.822900 0.558300 0.105700
vn 0.898800 0.423900 -0.111300
vn 0.871300 0.478000 -0.111300
vn 0.876700 0.469300 0.105700
vn 0.938200 0.327700 -0.111300
vn 0.916500 0.384300 -0.111300
vn 0.921000 0.375100 0.105700
vn 0.967300 0.227800 -0.111300
vn 0.951600 0.286400 -0.111300
vn 0.955100 0.276700 0.105700
vn 0.985800 0.125400 -0.111300
vn 0.976300 0.185300 -0.111300
vn 0.978800 0.175400 0.105700
vn 0.993500 0.021700 -0.111300
vn 0.990400 0.082300 -0.111300
vn 0.991800 0.072100 0.105700
vn 0.990400 -0.082300 -0.111300
vn 0.993500 -0.021700 -0.111300
vn 0.993900 -0.032000 0.105700
vn 0.976300 -0.185300 -0.111300
vn 0.985800 -0.125400 -0.111300
vn 0.985100 -0.135700 0.105700
vn 0.951600 -0.286400 -0.111300
vn 0.967300 -0.227800 -0.111300
vn 0.965500 -0.237900 0.105700
vn 0.916500 -0.384300 -0.111300
vn 0.938200 -0.327700 -0.111300
vn 0.935400 -0.337500 0.105700
vn 0.871300 -0.478000 -0.111300
vn 0.898800 -0.423900 -0.111300
vn 0.895000 -0.433400 0.105700
vn 0.816600 -0.566400 -0.111300
vn 0.849600 -0.515600 -0.111300
vn 0.844800 -0.524600 0.105700
vn 0.752900 -0.648700 -0.111300
vn 0.791000 -0.601600 -0.111300
vn 0.785300 -0.610100 0.105700
vn 0.680900 -0.723800 -0.111300
vn 0.723800 -0.680900 -0.111300
vn 0.717200 -0.688800 0.105700
vn 0.601600 -0.791000 -0.111300
vn 0.648700 -0.752900 -0.111300
vn 0.641300 -0.760000 0.105700
vn 0.515600 -0.849600 -0.111300
vn 0.566400 -0.816600 -0.111300
vn 0.558300 -0.822900 0.105700
vn 0.423900 -0.898800 -0.111300
vn 0.478000 -0.871300 -0.111300
vn 0.469300 -0.876700 0.105700
vn 0.327700 -0.938200 -0.111300
vn 0.384300 -0.916500 -0.111300
vn 0.375100 -0.921000 0.105700
vn 0.227800 -0.967300 -0.111300
vn 0.286400 -0.951600 -0.111300
vn 0.276700 -0.955100 0.105700
vn 0.125400 -0.985800 -0.111300
vn 0.185300 -0.976300 -0.111300
vn 0.175400 -0.978800 0.105700
vn 0.021700 -0.993500 -0.111300
vn 0.082300 -0.990400 -0.111300
vn 0.072100 -0.991800 0.105700
vn -0.082300 -0.990400 -0.111300
vn -0.021700 -0.993500 -0.111300
vn -0.032000 -0.993900 0.105700
vn -0.185300 -0.976300 -0.111300
vn -0.125400 -0.985800 -0.111300
vn -0.135700 -0.985100 0.105700
vn -0.286400 -0.951600 -0.111300
vn -0.227800 -0.967300 -0.111300
vn -0.237900 -0.965500 0.105700
vn -0.384300 -0.916500 -0.111300
vn -0.327700 -0.938200 -0.111300
vn -0.337500 -0.935400 0.105700
vn -0.478000 -0.871300 -0.111300
vn -0.423900 -0.898800 -0.111300
vn -0.433400 -0.895000 0.105700
vn -0.566400 -0.816600 -0.111300
vn -0.515600 -0.849600 -0.111300
vn -0.524600 -0.844800 0.105700
vn -0.648700 -0.752900 -0.111300
vn -0.601600 -0.791000 -0.111300
vn -0.610000 -0.785300 0.105700
vn -0.723800 -0.680900 -0.111300
vn -0.680900 -0.723800 -0.111300
vn -0.688800 -0.717200 0.105700
vn -0.791000 -0.601600 -0.111300
vn -0.752900 -0.648700 -0.111300
vn -0.760000 -0.641300 0.105700
vn -0.849600 -0.515600 -0.111300
vn -0.816600 -0.566400 -0.111300
vn -0.822900 -0.558300 0.105700
vn -0.898800 -0.424000 -0.111300
vn -0.871300 -0.478000 -0.111300
vn -0.876700 -0.469300 0.105700
vn -0.938200 -0.327700 -0.111300
vn -0.916500 -0.384300 -0.111300
vn -0.921000 -0.375100 0.105700
vn -0.967300 -0.227800 -0.111300
vn -0.951600 -0.286400 -0.111300
vn -0.955100 -0.276700 0.105700
vn -0.985800 -0.125400 -0.111300
vn -0.976300 -0.185300 -0.111300
vn -0.978800 -0.175400 0.105700
vn -0.993500 -0.021700 -0.111300
vn -0.990400 -0.082300 -0.111300
vn -0.991800 -0.072100 0.105700
vn -0.990400 0.082300 -0.111300
vn -0.993500 0.021700 -0.111300
vn -0.993900 0.032000 0.105700
vn -0.976300 0.185300 -0.111300
vn -0.985800 0.125400 -0.111300
vn -0.985100 0.135700 0.105700
vn -0.951600 0.286400 -0.111300
vn -0.967300 0.227800 -0.111300
vn -0.965500 0.237900 0.105700
vn -0.916500 0.384300 -0.111300
vn -0.938200 0.327700 -0.111300
vn -0.935400 0.337500 0.105700
vn -0.871300 0.478000 -0.111300
vn -0.898800 0.423900 -0.111300
vn -0.895000 0.433400 0.105700
vn -0.816600 0.566400 -0.111300
vn -0.849600 0.515600 -0.111300
vn -0.844800 0.524600 0.105700
vn -0.752900 0.648700 -0.111300
vn -0.791000 0.601500 -0.111300
vn -0.785300 0.610000 0.105700
vn -0.680900 0.723800 -0.111300
vn -0.723800 0.680900 -0.111300
vn -0.717200 0.688800 0.105700
vn -0.601600 0.791000 -0.111300
vn -0.648700 0.752900 -0.111300
vn -0.641300 0.760000 0.105700
vn -0.515600 0.849600 -0.111300
vn -0.566400 0.816600 -0.111300
vn -0.558300 0.822900 0.105700
vn -0.423900 0.898800 -0.111300
vn -0.478000 0.871300 -0.111300
vn -0.469300 0.876700 0.105700
vn -0.327700 0.938200 -0.111300
vn -0.384300 0.916500 -0.111300
vn -0.375100 0.921000 0.105700
vn -0.227800 0.967300 -0.111300
vn -0.286400 0.951600 -0.111300
vn -0.276700 0.955100 0.105700
vn -0.021700 0.993500 -0.111300
vn -0.082300 0.990400 -0.111300
vn -0.072100 0.991800 0.105700
vn -0.125400 0.985800 -0.111300
vn -0.185300 0.976300 -0.111300
vn -0.175400 0.978800 0.105700
vn 0.082300 0.990400 0.111300
vn 0.185300 0.976300 0.111300
vn 0.286400 0.951600 0.111300
vn 0.384300 0.916500 0.111300
vn 0.478000 0.871300 0.111300
vn 0.566400 0.816600 0.111300
vn 0.648700 0.752900 0.111300
vn 0.723800 0.680900 0.111300
vn 0.791000 0.601600 0.111300
vn 0.849600 0.515600 0.111300
vn 0.898800 0.423900 0.111300
vn 0.938200 0.327700 0.111300
vn 0.967300 0.227800 0.111300
vn 0.985800 0.125400 0.111300
vn 0.993500 0.021700 0.111300
vn 0.990400 -0.082300 0.111300
vn 0.976300 -0.185300 0.111300
vn 0.951600 -0.286400 0.111300
vn 0.916500 -0.384300 0.111300
vn 0.871300 -0.478000 0.111300
vn 0.816600 -0.566400 0.111300
vn 0.752900 -0.648700 0.111300
vn 0.680900 -0.723800 0.111300
vn 0.601600 -0.791000 0.111300
vn 0.515600 -0.849600 0.111300
vn 0.423900 -0.898800 0.111300
vn 0.327700 -0.938200 0.111300
vn 0.227800 -0.967300 0.111300
vn 0.125400 -0.985800 0.111300
vn 0.021700 -0.993500 0.111300
vn -0.082300 -0.990400 0.111300
vn -0.185300 -0.976300 0.111300
vn -0.286400 -0.951600 0.111300
vn -0.384300 -0.916500 0.111300
vn -0.478000 -0.871300 0.111300
vn -0.566400 -0.816600 0.111300
vn -0.648700 -0.752900 0.111300
vn -0.723800 -0.680900 0.111300
vn -0.791000 -0.601600 0.111300
vn -0.849600 -0.515600 0.111300
vn -0.898800 -0.424000 0.111300
vn -0.938200 -0.327700 0.111300
vn -0.967300 -0.227800 0.111300
vn -0.985800 -0.125400 0.111300
vn -0.993500 -0.021700 0.111300
vn -0.990400 0.082300 0.111300
vn -0.976300 0.185300 0.111300
vn -0.951600 0.286400 0.111300
vn -0.916500 0.384300 0.111300
vn -0.871300 0.478000 0.111300
vn -0.816600 0.566400 0.111300
vn -0.752900 0.648700 0.111300
vn -0.680900 0.723800 0.111300
vn -0.601600 0.791000 0.111300
vn -0.515600 0.849600 0.111300
vn -0.423900 0.898800 0.111300
vn -0.327700 0.938200 0.111300
vn -0.227800 0.967300 0.111300
vn -0.146400 -0.924600 0.351700
vn -0.049000 -0.934800 0.351800
vn 0.049000 -0.934800 0.351800
vn 0.146400 -0.924600 0.351800
vn 0.242300 -0.904200 0.351800
vn 0.335500 -0.873900 0.351700
vn 0.425000 -0.834100 0.351800
vn 0.509800 -0.785100 0.351800
vn 0.589100 -0.727500 0.351800
vn 0.661900 -0.661900 0.351800
vn 0.727500 -0.589100 0.351800
vn 0.785100 -0.509800 0.351800
vn 0.834100 -0.425000 0.351800
vn 0.873900 -0.335500 0.351800
vn 0.904200 -0.242300 0.351800
vn 0.924600 -0.146400 0.351700
vn 0.934800 -0.049000 0.351800
vn 0.934800 0.049000 0.351800
vn 0.924600 0.146400 0.351800
vn 0.904200 0.242300 0.351800
vn 0.873900 0.335500 0.351800
vn 0.834100 0.425000 0.351800
vn 0.785100 0.509800 0.351700
vn 0.727500 0.589100 0.351800
vn 0.661900 0.661900 0.351800
vn 0.589100 0.727500 0.351800
vn 0.509800 0.785100 0.351700
vn 0.425000 0.834100 0.351700
vn 0.335500 0.873900 0.351800
vn 0.242300 0.904200 0.351800
vn 0.146400 0.924500 0.351800
vn 0.049000 0.934800 0.351700
vn -0.049000 0.934800 0.351800
vn -0.146400 0.924600 0.351700
vn -0.242300 0.904200 0.351700
vn -0.335500 0.873900 0.351800
vn -0.425000 0.834100 0.351800
vn -0.509800 0.785100 0.351700
vn -0.589100 0.727500 0.351800
vn -0.661900 0.661900 0.351800
vn -0.727500 0.589100 0.351800
vn -0.785100 0.509800 0.351800
vn -0.834100 0.425000 0.351800
vn -0.873900 0.335500 0.351700
vn -0.904200 0.242300 0.351800
vn -0.924600 0.146400 0.351800
vn -0.934800 0.049000 0.351800
vn -0.934800 -0.049000 0.351800
vn -0.924600 -0.146400 0.351800
vn -0.904200 -0.242300 0.351700
vn -0.873900 -0.335500 0.351800
vn -0.834100 -0.425000 0.351800
vn -0.785100 -0.509800 0.351700
vn -0.727500 -0.589100 0.351800
vn -0.661900 -0.661900 0.351800
vn -0.589100 -0.727500 0.351800
vn -0.509800 -0.785100 0.351800
vn -0.425000 -0.834100 0.351800
vn -0.335500 -0.873900 0.351700
vn -0.242300 -0.904200 0.351700
vn -0.021700 0.993500 0.111300
vn -0.125400 0.985800 0.111300
vn 0.049000 -0.934800 -0.351800
vn -0.049000 -0.934800 -0.351800
vn -0.146400 -0.924600 -0.351700
vn -0.242300 -0.904200 -0.351700
vn -0.335500 -0.873900 -0.351700
vn -0.425000 -0.834100 -0.351800
vn -0.509800 -0.785100 -0.351800
vn -0.589100 -0.727500 -0.351800
vn -0.661900 -0.661900 -0.351800
vn -0.727500 -0.589100 -0.351800
vn -0.785100 -0.509800 -0.351700
vn -0.834100 -0.425000 -0.351800
vn -0.873900 -0.335500 -0.351800
vn -0.904200 -0.242300 -0.351700
vn -0.924600 -0.146400 -0.351800
vn -0.934800 -0.049000 -0.351800
vn -0.934800 0.049000 -0.351800
vn -0.924600 0.146400 -0.351800
vn -0.904200 0.242300 -0.351700
vn -0.873900 0.335500 -0.351800
vn -0.834100 0.425000 -0.351800
vn -0.785100 0.509800 -0.351800
vn -0.727500 0.589100 -0.351800
vn -0.661900 0.661900 -0.351800
vn -0.589100 0.727500 -0.351800
vn -0.509800 0.785100 -0.351700
vn -0.425000 0.834100 -0.351800
vn -0.335500 0.873900 -0.351800
vn -0.242300 0.904200 -0.351700
vn -0.146400 0.924600 -0.351700
vn -0.049000 0.934800 -0.351800
vn 0.049000 0.934800 -0.351700
vn 0.146400 0.924500 -0.351800
vn 0.242300 0.904200 -0.351800
vn 0.335500 0.873900 -0.351800
vn 0.425000 0.834100 -0.351700
vn 0.509800 0.785100 -0.351700
vn 0.589100 0.727500 -0.351800
vn 0.661900 0.661900 -0.351800
vn 0.727500 0.589100 -0.351800
vn 0.785100 0.509800 -0.351700
vn 0.834100 0.425000 -0.351800
vn 0.873900 0.335500 -0.351800
vn 0.904200 0.242300 -0.351700
vn 0.924600 0.146400 -0.351800
vn 0.934800 0.049000 -0.351800
vn 0.934800 -0.049000 -0.351800
vn 0.924600 -0.146400 -0.351700
vn 0.904200 -0.242300 -0.351800
vn 0.873900 -0.335500 -0.351800
vn 0.834100 -0.425000 -0.351800
vn 0.785100 -0.509800 -0.351800
vn 0.727500 -0.589100 -0.351800
vn 0.661900 -0.661900 -0.351800
vn 0.589100 -0.727500 -0.351800
vn 0.509800 -0.785100 -0.351800
vn 0.425000 -0.834100 -0.351800
vn 0.335500 -0.873900 -0.351700
vn 0.242300 -0.904200 -0.351800
vn 0.146400 -0.924600 -0.351800
vn 0.032000 0.993900 -0.105700
vn 0.072100 0.991800 -0.105700
vn 0.021700 0.993500 0.111300
vn 0.175400 0.978800 -0.105700
vn 0.135700 0.985100 -0.105700
vn 0.125400 0.985800 0.111300
vn 0.276700 0.955100 -0.105700
vn 0.237900 0.965500 -0.105700
vn 0.227800 0.967300 0.111300
vn 0.375100 0.921000 -0.105700
vn 0.337500 0.935400 -0.105700
vn 0.327700 0.938200 0.111300
vn 0.469300 0.876700 -0.105700
vn 0.433500 0.895000 -0.105700
vn 0.423900 0.898800 0.111300
vn 0.558300 0.822900 -0.105700
vn 0.524600 0.844800 -0.105700
vn 0.515600 0.849600 0.111300
vn 0.641300 0.760000 -0.105700
vn 0.610100 0.785300 -0.105700
vn 0.601600 0.791000 0.111300
vn 0.717200 0.688800 -0.105700
vn 0.688800 0.717200 -0.105700
vn 0.680900 0.723800 0.111300
vn 0.785300 0.610100 -0.105700
vn 0.760000 0.641300 -0.105700
vn 0.752900 0.648700 0.111300
vn 0.844700 0.524600 -0.105700
vn 0.822900 0.558300 -0.105700
vn 0.816600 0.566400 0.111300
vn 0.895000 0.433500 -0.105700
vn 0.876700 0.469300 -0.105700
vn 0.871300 0.478000 0.111300
vn 0.935400 0.337500 -0.105700
vn 0.921000 0.375100 -0.105700
vn 0.916500 0.384300 0.111300
vn 0.965500 0.237900 -0.105700
vn 0.955100 0.276700 -0.105700
vn 0.951600 0.286400 0.111300
vn 0.985100 0.135700 -0.105700
vn 0.978800 0.175400 -0.105700
vn 0.976300 0.185300 0.111300
vn 0.993900 0.032000 -0.105700
vn 0.991800 0.072100 -0.105700
vn 0.990400 0.082300 0.111300
vn 0.991800 -0.072100 -0.105700
vn 0.993900 -0.032000 -0.105700
vn 0.993500 -0.021700 0.111300
vn 0.978800 -0.175400 -0.105700
vn 0.985100 -0.135700 -0.105700
vn 0.985800 -0.125400 0.111300
vn 0.955100 -0.276700 -0.105700
vn 0.965500 -0.237900 -0.105700
vn 0.967300 -0.227800 0.111300
vn 0.921000 -0.375000 -0.105700
vn 0.935400 -0.337500 -0.105700
vn 0.938200 -0.327700 0.111300
vn 0.876700 -0.469300 -0.105700
vn 0.895000 -0.433500 -0.105700
vn 0.898800 -0.423900 0.111300
vn 0.822900 -0.558300 -0.105700
vn 0.844800 -0.524600 -0.105700
vn 0.849600 -0.515600 0.111300
vn 0.760000 -0.641300 -0.105700
vn 0.785300 -0.610100 -0.105700
vn 0.791000 -0.601600 0.111300
vn 0.688800 -0.717200 -0.105700
vn 0.717200 -0.688800 -0.105700
vn 0.723800 -0.680900 0.111300
vn 0.610100 -0.785300 -0.105700
vn 0.641300 -0.760000 -0.105700
vn 0.648700 -0.752900 0.111300
vn 0.524600 -0.844800 -0.105700
vn 0.558300 -0.822900 -0.105700
vn 0.566400 -0.816600 0.111300
vn 0.433500 -0.895000 -0.105700
vn 0.469300 -0.876700 -0.105700
vn 0.478000 -0.871300 0.111300
vn 0.337500 -0.935400 -0.105700
vn 0.375100 -0.921000 -0.105700
vn 0.384300 -0.916500 0.111300
vn 0.237900 -0.965500 -0.105700
vn 0.276700 -0.955100 -0.105700
vn 0.286400 -0.951600 0.111300
vn 0.135700 -0.985100 -0.105700
vn 0.175400 -0.978800 -0.105700
vn 0.185300 -0.976300 0.111300
vn 0.032000 -0.993900 -0.105700
vn 0.072100 -0.991800 -0.105700
vn 0.082300 -0.990400 0.111300
vn -0.072100 -0.991800 -0.105700
vn -0.032000 -0.993900 -0.105700
vn -0.021700 -0.993500 0.111300
vn -0.175400 -0.978800 -0.105700
vn -0.135700 -0.985100 -0.105700
vn -0.125400 -0.985800 0.111300
vn -0.276700 -0.955100 -0.105700
vn -0.237900 -0.965500 -0.105700
vn -0.227800 -0.967300 0.111300
vn -0.375000 -0.921000 -0.105700
vn -0.337500 -0.935400 -0.105700
vn -0.327700 -0.938200 0.111300
vn -0.469300 -0.876700 -0.105700
vn -0.433400 -0.895000 -0.105700
vn -0.423900 -0.898800 0.111300
vn -0.558300 -0.822900 -0.105700
vn -0.524600 -0.844800 -0.105700
vn -0.515600 -0.849600 0.111300
vn -0.641300 -0.760000 -0.105700
vn -0.610100 -0.785300 -0.105700
vn -0.601600 -0.791000 0.111300
vn -0.717200 -0.688800 -0.105700
vn -0.688800 -0.717200 -0.105700
vn -0.680900 -0.723800 0.111300
vn -0.785300 -0.610100 -0.105700
vn -0.760000 -0.641300 -0.105700
vn -0.752900 -0.648700 0.111300
vn -0.844700 -0.524600 -0.105700
vn -0.822900 -0.558300 -0.105700
vn -0.816600 -0.566400 0.111300
vn -0.895000 -0.433500 -0.105700
vn -0.876700 -0.469300 -0.105700
vn -0.871300 -0.478000 0.111300
vn -0.935400 -0.337500 -0.105700
vn -0.921000 -0.375100 -0.105700
vn -0.916500 -0.384300 0.111300
vn -0.965500 -0.237900 -0.105700
vn -0.955100 -0.276700 -0.105700
vn -0.951600 -0.286400 0.111300
vn -0.985100 -0.135700 -0.105700
vn -0.978800 -0.175400 -0.105700
vn -0.976300 -0.185300 0.111300
vn -0.993900 -0.032000 -0.105700
vn -0.991800 -0.072100 -0.105700
vn -0.990400 -0.082300 0.111300
vn -0.991800 0.072100 -0.105700
vn -0.993900 0.032000 -0.105700
vn -0.993500 0.021700 0.111300
vn -0.978800 0.175400 -0.105700
vn -0.985100 0.135700 -0.105700
vn -0.985800 0.125400 0.111300
vn -0.955100 0.276700 -0.105700
vn -0.965500 0.237900 -0.105700
vn -0.967300 0.227800 0.111300
vn -0.921000 0.375000 -0.105700
vn -0.935400 0.337500 -0.105700
vn -0.938200 0.327700 0.111300
vn -0.876700 0.469300 -0.105700
vn -0.895000 0.433400 -0.105700
vn -0.898800 0.423900 0.111300
vn -0.822900 0.558300 -0.105700
vn -0.844800 0.524600 -0.105700
vn -0.849600 0.515600 0.111300
vn -0.760000 0.641300 -0.105700
vn -0.785300 0.610000 -0.105700
vn -0.791000 0.601500 0.111300
vn -0.688800 0.717200 -0.105700
vn -0.717200 0.688800 -0.105700
vn -0.723800 0.680900 0.111300
vn -0.610100 0.785300 -0.105700
vn -0.641300 0.760000 -0.105700
vn -0.648700 0.752900 0.111300
vn -0.524600 0.844700 -0.105700
vn -0.558300 0.822900 -0.105700
vn -0.566400 0.816600 0.111300
vn -0.433500 0.895000 -0.105700
vn -0.469300 0.876700 -0.105700
vn -0.478000 0.871300 0.111300
vn -0.337500 0.935400 -0.105700
vn -0.375100 0.921000 -0.105700
vn -0.384300 0.916500 0.111300
vn -0.237900 0.965500 -0.105700
vn -0.276700 0.955100 -0.105700
vn -0.286400 0.951600 0.111300
vn -0.032000 0.993900 -0.105700
vn -0.072100 0.991800 -0.105700
vn -0.082300 0.990400 0.111300
vn -0.135700 0.985100 -0.105700
vn -0.175400 0.978800 -0.105700
vn -0.185300 0.976300 0.111300
s off
f 122//1 4//1 124//1
f 126//2 6//2 127//2
f 129//3 8//3 130//3
f 132//4 10//4 133//4
f 135//5 12//5 136//5
f 138//6 14//6 139//6
f 141//7 16//7 142//7
f 144//8 18//8 145//8
f 147//9 20//9 148//9
f 150//10 22//10 151//10
f 153//11 24//11 154//11
f 156//12 26//12 157//12
f 159//13 28//13 160//13
f 162//14 30//14 163//14
f 165//15 32//15 166//15
f 168//16 34//16 169//16
f 171//17 36//17 172//17
f 174//18 38//18 175//18
f 177//19 40//19 178//19
f 180//20 42//20 181//20
f 183//21 44//21 184//21
f 186//22 46//22 187//22
f 189//23 48//23 190//23
f 192//24 50//24 193//24
f 195//25 52//25 196//25
f 198//26 54//26 199//26
f 201//27 56//27 202//27
f 204//28 58//28 205//28
f 207//29 60//29 208//29
f 210//30 62//30 211//30
f 213//31 64//31 214//31
f 216//32 66//32 217//32
f 219//33 68//33 220//33
f 222//34 70//34 223//34
f 225//35 72//35 226//35
f 228//36 74//36 229//36
f 231//37 76//37 232//37
f 234//38 78//38 235//38
f 237//39 80//39 238//39
f 240//40 82//40 241//40
f 243//41 84//41 244//41
f 246//42 86//42 247//42
f 249//43 88//43 250//43
f 252//44 90//44 253//44
f 255//45 92//45 256//45
f 258//46 94//46 259//46
f 261//47 96//47 262//47
f 264//48 98//48 265//48
f 267//49 100//49 268//49
f 270//50 102//50 271//50
f 273//51 104//51 274//51
f 276//52 106//52 277//52
f 279//53 108//53 280//53
f 282//54 110//54 283//54
f 285//55 112//55 286//55
f 288//56 114//56 289//56
f 291//57 116//57 292//57
f 294//58 118//58 295//58
f 40//59 10//59 120//59
f 300//60 2//60 123//60
f 297//61 120//61 298//61
f 111//62 15//62 47//62
f 121//63 301//63 124//63
f 123//64 301//64 121//64
f 123//65 2//65 122//65
f 125//66 302//66 127//66
f 124//67 302//67 125//67
f 124//68 4//68 126//68
f 128//69 303//69 130//69
f 127//70 303//70 128//70
f 127//71 6//71 129//71
f 131//72 304//72 133//72
f 130//73 304//73 131//73
f 130//74 8//74 132//74
f 134//75 305//75 136//75
f 133//76 305//76 134//76
f 133//77 10//77 135//77
f 137//78 306//78 139//78
f 136//79 306//79 137//79
f 136//80 12//80 138//80
f 140//81 307//81 142//81
f 139//82 307//82 140//82
f 139//83 14//83 141//83
f 143//84 308//84 145//84
f 142//85 308//85 143//85
f 142//86 16//86 144//86
f 146//87 309//87 148//87
f 145//88 309//88 146//88
f 145//89 18//89 147//89
f 149//90 310//90 151//90
f 148//91 310//91 149//91
f 148//92 20//92 150//92
f 152//93 311//93 154//93
f 151//94 311//94 152//94
f 151//95 22//95 153//95
f 155//96 312//96 157//96
f 154//97 312//97 155//97
f 154//98 24//98 156//98
f 158//99 313//99 160//99
f 157//100 313//100 158//100
f 157//101 26//101 159//101
f 161//102 314//102 163//102
f 160//103 314//103 161//103
f 160//104 28//104 162//104
f 164//105 315//105 166//105
f 163//106 315//106 164//106
f 163//107 30//107 165//107
f 167//108 316//108 169//108
f 166//109 316//109 167//109
f 166//110 32//110 168//110
f 170//111 317//111 172//111
f 169//112 317//112 170//112
f 169//113 34//113 171//113
f 173//114 318//114 175//114
f 172//115 318//115 173//115
f 172//116 36//116 174//116
f 176//117 319//117 178//117
f 175//118 319//118 176//118
f 175//119 38//119 177//119
f 179//120 320//120 181//120
f 178//121 320//121 179//121
f 178//122 40//122 180//122
f 182//123 321//123 184//123
f 181//124 321//124 182//124
f 181//125 42//125 183//125
f 185//126 322//126 187//126
f 184//127 322//127 185//127
f 184//128 44//128 186//128
f 188//129 323//129 190//129
f 187//130 323//130 188//130
f 187//131 46//131 189//131
f 191//132 324//132 193//132
f 190//133 324//133 191//133
f 190//134 48//134 192//134
f 194//135 325//135 196//135
f 193//136 325//136 194//136
f 193//137 50//137 195//137
f 197//138 326//138 199//138
f 196//139 326//139 197//139
f 196//140 52//140 198//140
f 200//141 327//141 202//141
f 199//142 327//142 200//142
f 199//143 54//143 201//143
f 203//144 328//144 205//144
f 202//145 328//145 203//145
f 202//146 56//146 204//146
f 206//147 329//147 208//147
f 205//148 329//148 206//148
f 205//149 58//149 207//149
f 209//150 330//150 211//150
f 208//151 330//151 209//151
f 208//152 60//152 210//152
f 212//153 331//153 214//153
f 211//154 331//154 212//154
f 211//155 62//155 213//155
f 215//156 332//156 217//156
f 214//157 332//157 215//157
f 214//158 64//158 216//158
f 218//159 333//159 220//159
f 217//160 333//160 218//160
f 217//161 66//161 219//161
f 221//162 334//162 223//162
f 220//163 334//163 221//163
f 220//164 68//164 222//164
f 224//165 335//165 226//165
f 223//166 335//166 224//166
f 223//167 70//167 225//167
f 227//168 336//168 229//168
f 226//169 336//169 227//169
f 226//170 72//170 228//170
f 230//171 337//171 232//171
f 229//172 337//172 230//172
f 229//173 74//173 231//173
f 233//174 338//174 235//174
f 232//175 338//175 233//175
f 232//176 76//176 234//176
f 236//177 339//177 238//177
f 235//178 339//178 236//178
f 235//179 78//179 237//179
f 239//180 340//180 241//180
f 238//181 340//181 239//181
f 238//182 80//182 240//182
f 242//183 341//183 244//183
f 241//184 341//184 242//184
f 241//185 82//185 243//185
f 245//186 342//186 247//186
f 244//187 342//187 245//187
f 244//188 84//188 246//188
f 248//189 343//189 250//189
f 247//190 343//190 248//190
f 247//191 86//191 249//191
f 251//192 344//192 253//192
f 250//193 344//193 251//193
f 250//194 88//194 252//194
f 254//195 345//195 256//195
f 253//196 345//196 254//196
f 253//197 90//197 255//197
f 257//198 346//198 259//198
f 256//199 346//199 257//199
f 256//200 92//200 258//200
f 260//201 347//201 262//201
f 259//202 347//202 260//202
f 259//203 94//203 261//203
f 263//204 348//204 265//204
f 262//205 348//205 263//205
f 262//206 96//206 264//206
f 266//207 349//207 268//207
f 265//208 349//208 266//208
f 265//209 98//209 267//209
f 269//210 350//210 271//210
f 268//211 350//211 269//211
f 268//212 100//212 270//212
f 272//213 351//213 274//213
f 271//214 351//214 272//214
f 271//215 102//215 273//215
f 275//216 352//216 277//216
f 274//217 352//217 275//217
f 274//218 104//218 276//218
f 278//219 353//219 280//219
f 277//220 353//220 278//220
f 277//221 106//221 279//221
f 281//222 354//222 283//222
f 280//223 354//223 281//223
f 280//224 108//224 282//224
f 284//225 355//225 286//225
f 283//226 355//226 284//226
f 283//227 110//227 285//227
f 287//228 356//228 289//228
f 286//229 356//229 287//229
f 286//230 112//230 288//230
f 290//231 357//231 292//231
f 289//232 357//232 290//232
f 289//233 114//233 291//233
f 293//234 358//234 295//234
f 292//235 358//235 293//235
f 292//236 116//236 294//236
f 299//237 359//237 123//237
f 298//238 359//238 299//238
f 298//239 120//239 300//239
f 296//240 360//240 298//240
f 295//241 360//241 296//241
f 295//242 118//242 297//242
f 301//243 122//243 124//243
f 302//244 126//244 127//244
f 303//245 129//245 130//245
f 304//246 132//246 133//246
f 305//247 135//247 136//247
f 306//248 138//248 139//248
f 307//249 141//249 142//249
f 308//250 144//250 145//250
f 309//251 147//251 148//251
f 310//252 150//252 151//252
f 311//253 153//253 154//253
f 312//254 156//254 157//254
f 313//255 159//255 160//255
f 314//256 162//256 163//256
f 315//257 165//257 166//257
f 316//258 168//258 169//258
f 317//259 171//259 172//259
f 318//260 174//260 175//260
f 319//261 177//261 178//261
f 320//262 180//262 181//262
f 321//263 183//263 184//263
f 322//264 186//264 187//264
f 323//265 189//265 190//265
f 324//266 192//266 193//266
f 325//267 195//267 196//267
f 326//268 198//268 199//268
f 327//269 201//269 202//269
f 328//270 204//270 205//270
f 329//271 207//271 208//271
f 330//272 210//272 211//272
f 331//273 213//273 214//273
f 332//274 216//274 217//274
f 333//275 219//275 220//275
f 334//276 222//276 223//276
f 335//277 225//277 226//277
f 336//278 228//278 229//278
f 337//279 231//279 232//279
f 338//280 234//280 235//280
f 339//281 237//281 238//281
f 340//282 240//282 241//282
f 341//283 243//283 244//283
f 342//284 246//284 247//284
f 343//285 249//285 250//285
f 344//286 252//286 253//286
f 345//287 255//287 256//287
f 346//288 258//288 259//288
f 347//289 261//289 262//289
f 348//290 264//290 265//290
f 349//291 267//291 268//291
f 350//292 270//292 271//292
f 351//293 273//293 274//293
f 352//294 276//294 277//294
f 353//295 279//295 280//295
f 354//296 282//296 283//296
f 355//297 285//297 286//297
f 356//298 288//298 289//298
f 357//299 291//299 292//299
f 358//300 294//300 295//300
f 6//301 126//301 4//301
f 4//302 122//302 2//302
f 2//303 300//303 120//303
f 120//304 297//304 118//304
f 118//305 294//305 116//305
f 116//306 291//306 114//306
f 114//307 288//307 112//307
f 112//308 285//308 110//308
f 110//309 282//309 108//309
f 108//310 279//310 106//310
f 106//311 276//311 104//311
f 104//312 273//312 102//312
f 102//313 270//313 100//313
f 100//314 267//314 98//314
f 98//315 264//315 96//315
f 96//316 261//316 94//316
f 94//317 258//317 92//317
f 92//318 255//318 90//318
f 90//319 252//319 88//319
f 88//320 249//320 86//320
f 86//321 246//321 84//321
f 84//322 243//322 82//322
f 82//323 240//323 80//323
f 80//324 237//324 78//324
f 78//325 234//325 76//325
f 76//326 231//326 74//326
f 74//327 228//327 72//327
f 72//328 225//328 70//328
f 70//329 222//329 68//329
f 68//330 219//330 66//330
f 66//331 216//331 64//331
f 64//332 213//332 62//332
f 62//333 210//333 60//333
f 60//334 207//334 58//334
f 58//335 204//335 56//335
f 56//336 201//336 54//336
f 54//337 198//337 52//337
f 52//338 195//338 50//338
f 50//339 192//339 48//339
f 48//340 189//340 46//340
f 46//341 186//341 44//341
f 44//342 183//342 42//342
f 42//343 180//343 40//343
f 40//344 177//344 38//344
f 38//345 174//345 36//345
f 36//346 171//346 34//346
f 34//347 168//347 32//347
f 32//348 165//348 30//348
f 30//349 162//349 28//349
f 28//350 159//350 26//350
f 26//351 156//351 24//351
f 24//352 153//352 22//352
f 22//353 150//353 20//353
f 20//354 147//354 18//354
f 18//355 144//355 16//355
f 16//356 141//356 14//356
f 14//357 138//357 12//357
f 12//358 135//358 10//358
f 10//359 132//359 8//359
f 8//360 129//360 6//360
f 6//59 4//59 2//59
f 82//59 90//59 88//59
f 10//59 32//59 12//59
f 120//59 10//59 8//59
f 106//59 102//59 108//59
f 106//59 104//59 102//59
f 98//59 94//59 100//59
f 98//59 96//59 94//59
f 94//59 92//59 90//59
f 86//59 82//59 88//59
f 86//59 84//59 82//59
f 58//59 54//59 48//59
f 78//59 76//59 74//59
f 70//59 68//59 72//59
f 102//59 110//59 108//59
f 62//59 60//59 64//59
f 74//59 72//59 58//59
f 58//59 56//59 54//59
f 50//59 48//59 52//59
f 46//59 58//59 48//59
f 359//361 300//361 123//361
f 40//59 38//59 10//59
f 34//59 32//59 36//59
f 94//59 82//59 80//59
f 82//59 94//59 90//59
f 22//59 28//59 24//59
f 18//59 16//59 20//59
f 112//59 110//59 120//59
f 38//59 32//59 10//59
f 6//59 120//59 8//59
f 40//59 120//59 110//59
f 6//59 2//59 120//59
f 120//59 118//59 116//59
f 100//59 94//59 110//59
f 16//59 22//59 20//59
f 80//59 78//59 110//59
f 68//59 66//59 64//59
f 32//59 38//59 36//59
f 48//59 54//59 52//59
f 68//59 60//59 72//59
f 44//59 40//59 78//59
f 32//59 30//59 14//59
f 28//59 16//59 14//59
f 30//59 28//59 14//59
f 44//59 42//59 40//59
f 78//59 40//59 110//59
f 102//59 100//59 110//59
f 22//59 16//59 28//59
f 72//59 60//59 58//59
f 58//59 46//59 74//59
f 116//59 112//59 120//59
f 60//59 68//59 64//59
f 360//362 297//362 298//362
f 94//59 80//59 110//59
f 78//59 74//59 46//59
f 28//59 26//59 24//59
f 116//59 114//59 112//59
f 46//59 44//59 78//59
f 12//59 32//59 14//59
f 119//363 299//363 1//363
f 1//364 121//364 3//364
f 3//365 125//365 5//365
f 5//366 128//366 7//366
f 7//367 131//367 9//367
f 9//368 134//368 11//368
f 11//369 137//369 13//369
f 13//370 140//370 15//370
f 15//371 143//371 17//371
f 17//372 146//372 19//372
f 19//373 149//373 21//373
f 21//374 152//374 23//374
f 23//375 155//375 25//375
f 25//376 158//376 27//376
f 27//377 161//377 29//377
f 29//378 164//378 31//378
f 31//379 167//379 33//379
f 33//380 170//380 35//380
f 35//381 173//381 37//381
f 37//382 176//382 39//382
f 39//383 179//383 41//383
f 41//384 182//384 43//384
f 43//385 185//385 45//385
f 45//386 188//386 47//386
f 47//387 191//387 49//387
f 49//388 194//388 51//388
f 51//389 197//389 53//389
f 53//390 200//390 55//390
f 55//391 203//391 57//391
f 57//392 206//392 59//392
f 59//393 209//393 61//393
f 61//394 212//394 63//394
f 63//395 215//395 65//395
f 65//396 218//396 67//396
f 67//397 221//397 69//397
f 69//398 224//398 71//398
f 71//399 227//399 73//399
f 73//400 230//400 75//400
f 75//401 233//401 77//401
f 77//402 236//402 79//402
f 79//403 239//403 81//403
f 81//404 242//404 83//404
f 83//405 245//405 85//405
f 85//406 248//406 87//406
f 87//407 251//407 89//407
f 89//408 254//408 91//408
f 91//409 257//409 93//409
f 93//410 260//410 95//410
f 95//411 263//411 97//411
f 97//412 266//412 99//412
f 99//413 269//413 101//413
f 101//414 272//414 103//414
f 103//415 275//415 105//415
f 105//416 278//416 107//416
f 107//417 281//417 109//417
f 109//418 284//418 111//418
f 111//419 287//419 113//419
f 113//420 290//420 115//420
f 115//421 293//421 117//421
f 117//422 296//422 119//422
f 93//62 97//62 99//62
f 47//62 39//62 41//62
f 11//62 119//62 9//62
f 11//62 13//62 15//62
f 15//62 17//62 19//62
f 23//62 27//62 21//62
f 23//62 25//62 27//62
f 27//62 29//62 31//62
f 31//62 33//62 35//62
f 39//62 47//62 37//62
f 43//62 47//62 41//62
f 43//62 45//62 47//62
f 47//62 49//62 51//62
f 51//62 53//62 55//62
f 59//62 79//62 57//62
f 59//62 61//62 63//62
f 63//62 65//62 67//62
f 67//62 69//62 71//62
f 1//423 123//423 121//423
f 79//62 73//62 77//62
f 83//62 87//62 81//62
f 83//62 85//62 87//62
f 91//62 93//62 89//62
f 95//62 97//62 93//62
f 79//62 55//62 57//62
f 103//62 107//62 101//62
f 103//62 105//62 107//62
f 107//62 109//62 111//62
f 111//62 113//62 115//62
f 115//62 117//62 119//62
f 107//62 111//62 79//62
f 15//62 119//62 11//62
f 21//62 27//62 15//62
f 73//62 79//62 59//62
f 35//62 37//62 15//62
f 73//62 75//62 77//62
f 55//62 111//62 51//62
f 93//62 79//62 89//62
f 63//62 67//62 71//62
f 37//62 47//62 15//62
f 73//62 59//62 63//62
f 71//62 73//62 63//62
f 27//62 31//62 35//62
f 87//62 89//62 81//62
f 111//62 115//62 119//62
f 1//62 3//62 5//62
f 107//62 99//62 101//62
f 5//62 7//62 119//62
f 111//62 47//62 51//62
f 19//62 21//62 15//62
f 1//62 5//62 119//62
f 93//62 107//62 79//62
f 111//62 119//62 15//62
f 27//62 35//62 15//62
f 111//62 55//62 79//62
f 89//62 79//62 81//62
f 3//424 121//424 124//424
f 119//62 7//62 9//62
f 93//62 99//62 107//62
f 301//425 123//425 122//425
f 5//426 125//426 127//426
f 3//427 124//427 125//427
f 302//428 124//428 126//428
f 7//429 128//429 130//429
f 5//430 127//430 128//430
f 303//431 127//431 129//431
f 9//432 131//432 133//432
f 7//433 130//433 131//433
f 304//434 130//434 132//434
f 11//435 134//435 136//435
f 9//436 133//436 134//436
f 305//437 133//437 135//437
f 13//438 137//438 139//438
f 11//439 136//439 137//439
f 306//440 136//440 138//440
f 15//441 140//441 142//441
f 13//442 139//442 140//442
f 307//443 139//443 141//443
f 17//444 143//444 145//444
f 15//445 142//445 143//445
f 308//446 142//446 144//446
f 19//447 146//447 148//447
f 17//448 145//448 146//448
f 309//449 145//449 147//449
f 21//450 149//450 151//450
f 19//451 148//451 149//451
f 310//452 148//452 150//452
f 23//453 152//453 154//453
f 21//454 151//454 152//454
f 311//455 151//455 153//455
f 25//456 155//456 157//456
f 23//457 154//457 155//457
f 312//458 154//458 156//458
f 27//459 158//459 160//459
f 25//460 157//460 158//460
f 313//461 157//461 159//461
f 29//462 161//462 163//462
f 27//463 160//463 161//463
f 314//464 160//464 162//464
f 31//465 164//465 166//465
f 29//466 163//466 164//466
f 315//467 163//467 165//467
f 33//468 167//468 169//468
f 31//469 166//469 167//469
f 316//470 166//470 168//470
f 35//471 170//471 172//471
f 33//472 169//472 170//472
f 317//473 169//473 171//473
f 37//474 173//474 175//474
f 35//475 172//475 173//475
f 318//476 172//476 174//476
f 39//477 176//477 178//477
f 37//478 175//478 176//478
f 319//479 175//479 177//479
f 41//480 179//480 181//480
f 39//481 178//481 179//481
f 320//482 178//482 180//482
f 43//483 182//483 184//483
f 41//484 181//484 182//484
f 321//485 181//485 183//485
f 45//486 185//486 187//486
f 43//487 184//487 185//487
f 322//488 184//488 186//488
f 47//489 188//489 190//489
f 45//490 187//490 188//490
f 323//491 187//491 189//491
f 49//492 191//492 193//492
f 47//493 190//493 191//493
f 324//494 190//494 192//494
f 51//495 194//495 196//495
f 49//496 193//496 194//496
f 325//497 193//497 195//497
f 53//498 197//498 199//498
f 51//499 196//499 197//499
f 326//500 196//500 198//500
f 55//501 200//501 202//501
f 53//502 199//502 200//502
f 327//503 199//503 201//503
f 57//504 203//504 205//504
f 55//505 202//505 203//505
f 328//506 202//506 204//506
f 59//507 206//507 208//507
f 57//508 205//508 206//508
f 329//509 205//509 207//509
f 61//510 209//510 211//510
f 59//511 208//511 209//511
f 330//512 208//512 210//512
f 63//513 212//513 214//513
f 61//514 211//514 212//514
f 331//515 211//515 213//515
f 65//516 215//516 217//516
f 63//517 214//517 215//517
f 332//518 214//518 216//518
f 67//519 218//519 220//519
f 65//520 217//520 218//520
f 333//521 217//521 219//521
f 69//522 221//522 223//522
f 67//523 220//523 221//523
f 334//524 220//524 222//524
f 71//525 224//525 226//525
f 69//526 223//526 224//526
f 335//527 223//527 225//527
f 73//528 227//528 229//528
f 71//529 226//529 227//529
f 336//530 226//530 228//530
f 75//531 230//531 232//531
f 73//532 229//532 230//532
f 337//533 229//533 231//533
f 77//534 233//534 235//534
f 75//535 232//535 233//535
f 338//536 232//536 234//536
f 79//537 236//537 238//537
f 77//538 235//538 236//538
f 339//539 235//539 237//539
f 81//540 239//540 241//540
f 79//541 238//541 239//541
f 340//542 238//542 240//542
f 83//543 242//543 244//543
f 81//544 241//544 242//544
f 341//545 241//545 243//545
f 85//546 245//546 247//546
f 83//547 244//547 245//547
f 342//548 244//548 246//548
f 87//549 248//549 250//549
f 85//550 247//550 248//550
f 343//551 247//551 249//551
f 89//552 251//552 253//552
f 87//553 250//553 251//553
f 344//554 250//554 252//554
f 91//555 254//555 256//555
f 89//556 253//556 254//556
f 345//557 253//557 255//557
f 93//558 257//558 259//558
f 91//559 256//559 257//559
f 346//560 256//560 258//560
f 95//561 260//561 262//561
f 93//562 259//562 260//562
f 347//563 259//563 261//563
f 97//564 263//564 265//564
f 95//565 262//565 263//565
f 348//566 262//566 264//566
f 99//567 266//567 268//567
f 97//568 265//568 266//568
f 349//569 265//569 267//569
f 101//570 269//570 271//570
f 99//571 268//571 269//571
f 350//572 268//572 270//572
f 103//573 272//573 274//573
f 101//574 271//574 272//574
f 351//575 271//575 273//575
f 105//576 275//576 277//576
f 103//577 274//577 275//577
f 352//578 274//578 276//578
f 107//579 278//579 280//579
f 105//580 277//580 278//580
f 353//581 277//581 279//581
f 109//582 281//582 283//582
f 107//583 280//583 281//583
f 354//584 280//584 282//584
f 111//585 284//585 286//585
f 109//586 283//586 284//586
f 355//587 283//587 285//587
f 113//588 287//588 289//588
f 111//589 286//589 287//589
f 356//590 286//590 288//590
f 115//591 290//591 292//591
f 113//592 289//592 290//592
f 357//593 289//593 291//593
f 117//594 293//594 295//594
f 115//595 292//595 293//595
f 358//596 292//596 294//596
f 1//597 299//597 123//597
f 119//598 298//598 299//598
f 359//599 298//599 300//599
f 119//600 296//600 298//600
f 117//601 295//601 296//601
f 360//602 295//602 297//602
